Modeling
…
fits <- diab_wkf |> 
  tune_grid(resamples = diab_folds,
            grid = diab_grid, 
            metrics = metric_set(mn_log_loss))

# Now we can take the grid and collect our metrics to see how well each model did
fits |> collect_metrics() |>
  filter(.metric == "mn_log_loss") |>
  arrange(mean)

# A tibble: 50 × 8
   cost_complexity tree_depth .metric     .estimator  mean     n std_err .config
             <dbl>      <int> <chr>       <chr>      <dbl> <int>   <dbl> <chr>  
 1    0.0000000001          8 mn_log_loss binary     0.333     5 0.00116 Prepro…
 2    0.000000001           8 mn_log_loss binary     0.333     5 0.00116 Prepro…
 3    0.00000001            8 mn_log_loss binary     0.333     5 0.00116 Prepro…
 4    0.0000001             8 mn_log_loss binary     0.333     5 0.00116 Prepro…
 5    0.000001              8 mn_log_loss binary     0.333     5 0.00116 Prepro…
 6    0.00001               8 mn_log_loss binary     0.333     5 0.00116 Prepro…
 7    0.0000000001         11 mn_log_loss binary     0.334     5 0.00237 Prepro…
 8    0.000000001          11 mn_log_loss binary     0.334     5 0.00237 Prepro…
 9    0.00000001           11 mn_log_loss binary     0.334     5 0.00237 Prepro…
10    0.0000001            11 mn_log_loss binary     0.334     5 0.00237 Prepro…
# ℹ 40 more rows
…
